<svg xmlns="http://www.w3.org/2000/svg" width="15.638" height="8.819" viewBox="0 0 15.638 8.819">
  <g id="Group_1390" data-name="Group 1390" transform="translate(5537.292 3120.819)">
    <g id="Group_1389" data-name="Group 1389" transform="translate(-6631 -3492)">
      <path id="Path_13" data-name="Path 13" d="M0,0,6.405,6.4,0,12.81" transform="translate(1107.932 372.595) rotate(90)" fill="none" stroke="{{site.secondaire_kleur[0].kleur}}" stroke-linecap="round" stroke-linejoin="round" stroke-width="2"/>
    </g>
  </g>
</svg>
